:100000002DE9F0414B69054610200C4698472946DA
:10001000E36980469847636910209847E3694FF485
:100020007A7107469847636910209847E369FA2177
:100030000646984739462369256840469847314621
:080040000122A847BDE8F08190
:0400000300000001F8
:00000001FF
