:100000002DE9FF410B6E054610200C469847294606
:10001000804600F0F5FF236E102098474FF47A7168
:10002000054600F0EDFF236E102098474FF4FA715B
:10003000064600F0E5FF0A20A368014698470190B4
:100040000A20A3680146984702900020A368014651
:100050009847A3690390414601A80A229847A369DB
:1000600002A829460A22984703AA0299A76C019878
:100070000023B847E36801A89847E36802A89847B7
:10008000E36903989847E368074603A89847636EB7
:1000900040469847636E28469847236E0420984749
:1000A00005460A20A3680146984702900A20A368E3
:1000B00001469847A3690390394602A80A22984747
:1000C0000A22A36903A8314698470399A36A0298B4
:1000D0009847002398426B70B4BF312330232B70B4
:1000E000E36802A89847E36803A89847636E384618
:1000F00098473046636E9847284604B0BDE8F081C3
:101000000A1E10B502DA2D23037001300A2392FB69
:10101000F3F1002903FB112401DDFFF7F1FF303468
:0A1020000023047000F8013F10BD2A
:0400000300000001F8
:00000001FF
